{
  "builders": [{
    "type": "vagrant",
    "provider": "virtualbox",
    "communicator": "ssh",
    "source_path": "debian/stretch64",
    "skip_add": "true",
    "skip_package": "true"
  }],
  "provisioners": [{
    "type": "shell",
    "inline": ["whoami", "ls -la /home"]
  }]
}
